{"count":633,"next":"https://data.bus-data.dft.gov.uk/api/v1/dataset/?api_key=a40fc917e7dbcb1a78bf6a96659650941f1b8f28&endDateStart=2021-04-08T00%3A00%3A00&limit=1&offset=1&startDateEnd=2021-04-08T00%3A00%3A00&status=published","previous":null,"results":[{"id":256,"created":"2020-04-09T10:56:40+00:00","modified":"2021-02-05T16:02:58+00:00","operatorName":"Go-Ahead","noc":["GAHL","LGEN","LONC","BTRI","DBLU","GNE","EYMS","GONW","GNW","OXBC","THTR","CSLB","NATI","SQ","BLUS","WDBC","SWWD","TDTR","SVCT","TOUR","DAMY","UNIL","GOEA","CHAM","HEDO","KCTB","METR","BH","MB","BHBC","GNEL","PLYC","GOSW"],"name":"Go-Ahead_High Wycombe_Oxford City Centre_20200601_15","description":"Oxford Bus Company","comment":"Automatically detected change in data set","status":"published","url":"https://data.bus-data.dft.gov.uk/timetable/dataset/256/download/","extension":"zip","lines":["1","101","102","103","104","105","11","11X","13","136","136S","143","15","1A","2","20","27","2A","2B","3","33","337","35","36","36A","36B","38","39","3A","4","40","400","41","45","45S","46","4A","4B","4C","5","500","577","581","582","67","67C","6C","8","9","90","94","94S","95","95B","96","98","99A","99C","BB1","BB11","BB13","BB1A","BB2","BB3","BB4","BB5","BW1","LHR","OXF","ST1","ST1A","ST2","U1","U5","X103","X2","X3","X32","X36","X38","X39","X40","X8"],"firstStartDate":"2020-06-01T00:00:00+00:00","firstEndDate":"2021-02-06T23:59:00+00:00","lastEndDate":"2021-08-31T23:59:00+00:00","adminAreas":[{"atco_code":"040","name":"Buckinghamshire"},{"atco_code":"490","name":"Greater London"},{"atco_code":"210","name":"Hertfordshire"},{"atco_code":"340","name":"Oxfordshire"},{"atco_code":"039","name":"Reading"},{"atco_code":"037","name":"Slough"},{"atco_code":"030","name":"West Berkshire"},{"atco_code":"036","name":"Windsor & Maidenhead"}],"localities":[{"gazetteer_id":"E0056525","name":"Abingdon"},{"gazetteer_id":"N0077430","name":"Abingdon Town Centre"},{"gazetteer_id":"E0044054","name":"Amersham"},{"gazetteer_id":"E0050418","name":"Ardington"},{"gazetteer_id":"E0050330","name":"Aston Rowant"},{"gazetteer_id":"E0050332","name":"Aston Upthorpe"},{"gazetteer_id":"E0020737","name":"Barton"},{"gazetteer_id":"N0081147","name":"Barton Park"},{"gazetteer_id":"E0044070","name":"Beaconsfield"},{"gazetteer_id":"N0059984","name":"Beaconsfield Old Town"},{"gazetteer_id":"N0060361","name":"Beale Wildlife Park"},{"gazetteer_id":"E0000519","name":"Beamond End"},{"gazetteer_id":"E0050253","name":"Begbroke"},{"gazetteer_id":"E0050334","name":"Benson"},{"gazetteer_id":"E0050335","name":"Berinsfield"},{"gazetteer_id":"E0020783","name":"Bix"},{"gazetteer_id":"E0050325","name":"Blackbird Leys"},{"gazetteer_id":"E0050490","name":"Bladon"},{"gazetteer_id":"E0050422","name":"Blewbury"},{"gazetteer_id":"N0059993","name":"Booker"},{"gazetteer_id":"E0020934","name":"Botley"},{"gazetteer_id":"E0000660","name":"Bourne End"},{"gazetteer_id":"E0046950","name":"Bovingdon"},{"gazetteer_id":"N0076180","name":"Bovingdon Green"},{"gazetteer_id":"E0013732","name":"Boxmoor"},{"gazetteer_id":"E0043245","name":"Bray Wick"},{"gazetteer_id":"E0050339","name":"Brightwell cum Sotwell"},{"gazetteer_id":"E0000593","name":"Bulstrode Park"},{"gazetteer_id":"E0020788","name":"Burcot"},{"gazetteer_id":"E0000526","name":"Butlers Cross"},{"gazetteer_id":"E0020939","name":"Caldecott"},{"gazetteer_id":"E0020789","name":"Cane End"},{"gazetteer_id":"E0041479","name":"Caversham"},{"gazetteer_id":"E0041480","name":"Caversham Heights"},{"gazetteer_id":"N0071702","name":"Caversham Road"},{"gazetteer_id":"E0000527","name":"Chalfont Common"},{"gazetteer_id":"E0044056","name":"Chalfont St Giles"},{"gazetteer_id":"E0044057","name":"Chalfont St Peter"},{"gazetteer_id":"E0050341","name":"Chalgrove"},{"gazetteer_id":"E0041738","name":"Chalvey"},{"gazetteer_id":"E0020942","name":"Charlton"},{"gazetteer_id":"E0020793","name":"Chazey Heath"},{"gazetteer_id":"E0044059","name":"Chenies"},{"gazetteer_id":"E0044060","name":"Chesham"},{"gazetteer_id":"E0044061","name":"Chesham Bois"},{"gazetteer_id":"E0050428","name":"Chilton"},{"gazetteer_id":"E0050343","name":"Chinnor"},{"gazetteer_id":"E0020797","name":"Chiselhampton"},{"gazetteer_id":"E0050344","name":"Cholsey"},{"gazetteer_id":"E0047064","name":"Chorleywood"},{"gazetteer_id":"N0080907","name":"Churchill Hospital"},{"gazetteer_id":"E0050345","name":"Clifton Hampden"},{"gazetteer_id":"E0044063","name":"Coleshill"},{"gazetteer_id":"E0000677","name":"Cores End"},{"gazetteer_id":"E0020808","name":"Coscote"},{"gazetteer_id":"E0020742","name":"Cowley"},{"gazetteer_id":"E0020809","name":"Crays Pond"},{"gazetteer_id":"E0000678","name":"Cressex"},{"gazetteer_id":"E0050346","name":"Crowell"},{"gazetteer_id":"E0020811","name":"Crowmarsh Gifford"},{"gazetteer_id":"E0047065","name":"Croxley Green"},{"gazetteer_id":"E0050349","name":"Culham"},{"gazetteer_id":"N0081122","name":"Culham Science Centre"},{"gazetteer_id":"E0050431","name":"Cumnor"},{"gazetteer_id":"E0020948","name":"Cumnor Hill"},{"gazetteer_id":"E0020690","name":"Cutteslowe"},{"gazetteer_id":"E0050350","name":"Cuxham"},{"gazetteer_id":"N0071990","name":"Dean Court"},{"gazetteer_id":"E0044072","name":"Denham"},{"gazetteer_id":"E0000599","name":"Denham Green"},{"gazetteer_id":"E0050351","name":"Didcot"},{"gazetteer_id":"E0050352","name":"Dorchester"},{"gazetteer_id":"E0044085","name":"Downley"},{"gazetteer_id":"E0050433","name":"Drayton"},{"gazetteer_id":"E0050434","name":"East Challow"},{"gazetteer_id":"E0050354","name":"East Hagbourne"},{"gazetteer_id":"E0050435","name":"East Hanney"},{"gazetteer_id":"E0050436","name":"East Hendred"},{"gazetteer_id":"N0072214","name":"Elliman"},{"gazetteer_id":"N0076144","name":"Elms Rise"},{"gazetteer_id":"E0020815","name":"Emmington"},{"gazetteer_id":"E0020955","name":"Faringdon"},{"gazetteer_id":"E0013747","name":"Felden"},{"gazetteer_id":"E0000690","name":"Flackwell Heath"},{"gazetteer_id":"N0076148","name":"Florence Park"},{"gazetteer_id":"N0071930","name":"Forest Hill"},{"gazetteer_id":"E0044075","name":"Fulmer"},{"gazetteer_id":"E0020698","name":"Garden City"},{"gazetteer_id":"E0050359","name":"Garsington"},{"gazetteer_id":"E0000608","name":"George Green"},{"gazetteer_id":"E0044076","name":"Gerrards Cross"},{"gazetteer_id":"E0050442","name":"Goosey"},{"gazetteer_id":"E0050360","name":"Goring"},{"gazetteer_id":"E0050443","name":"Great Coxwell"},{"gazetteer_id":"N0076147","name":"Greater Leys"},{"gazetteer_id":"E0050445","name":"Grove"},{"gazetteer_id":"N0071999","name":"Harcourt Hill"},{"gazetteer_id":"E0034490","name":"Harmondsworth"},{"gazetteer_id":"E0050446","name":"Harwell"},{"gazetteer_id":"N0076142","name":"Harwell Campus"},{"gazetteer_id":"E0044092","name":"Hazlemere"},{"gazetteer_id":"E0020744","name":"Headington"},{"gazetteer_id":"E0020745","name":"Headington Quarry"},{"gazetteer_id":"E0034495","name":"Heathrow Airport"},{"gazetteer_id":"N0078310","name":"Heathrow Airport Terminal 5"},{"gazetteer_id":"E0013763","name":"Hemel Hempstead"},{"gazetteer_id":"E0050365","name":"Henley-on-Thames"},{"gazetteer_id":"N0072047","name":"Henwood"},{"gazetteer_id":"N0081138","name":"Heyford Hill"},{"gazetteer_id":"E0000611","name":"Higher Denham"},{"gazetteer_id":"E0000708","name":"High Wycombe"},{"gazetteer_id":"E0000545","name":"Holmer Green"},{"gazetteer_id":"E0000614","name":"Holtspur"},{"gazetteer_id":"E0050368","name":"Horspath"},{"gazetteer_id":"E0020749","name":"Iffley"},{"gazetteer_id":"E0050369","name":"Ipsden"},{"gazetteer_id":"E0044078","name":"Iver"},{"gazetteer_id":"E0000616","name":"Iver Heath"},{"gazetteer_id":"N0076653","name":"John Radcliffe Hospital"},{"gazetteer_id":"E0050449","name":"Kennington"},{"gazetteer_id":"N0060314","name":"Kentwood"},{"gazetteer_id":"E0050287","name":"Kidlington"},{"gazetteer_id":"E0020838","name":"Kingston Blount"},{"gazetteer_id":"E0000551","name":"Knotty Green"},{"gazetteer_id":"N0076143","name":"Ladygrove"},{"gazetteer_id":"E0050371","name":"Lewknor"},{"gazetteer_id":"E0000559","name":"Little Chalfont"},{"gazetteer_id":"E0050326","name":"Littlemore"},{"gazetteer_id":"E0020847","name":"Littleworth"},{"gazetteer_id":"E0050374","name":"Long Wittenham"},{"gazetteer_id":"N0059992","name":"Loudwater"},{"gazetteer_id":"E0020848","name":"Lower Assendon"},{"gazetteer_id":"E0043152","name":"Lower Basildon"},{"gazetteer_id":"E0020751","name":"Lower Wolvercote"},{"gazetteer_id":"E0000562","name":"Lye Green"},{"gazetteer_id":"N0076683","name":"Maidenhead Town Centre"},{"gazetteer_id":"E0020753","name":"Marston"},{"gazetteer_id":"E0050461","name":"Milton"},{"gazetteer_id":"N0072057","name":"Milton Heights"},{"gazetteer_id":"N0072058","name":"Milton Hill"},{"gazetteer_id":"N0072134","name":"Milton Park"},{"gazetteer_id":"E0020857","name":"Mongewell"},{"gazetteer_id":"E0050378","name":"Nettlebed"},{"gazetteer_id":"E0000626","name":"New Denham"},{"gazetteer_id":"E0020756","name":"New Hinksey"},{"gazetteer_id":"E0020757","name":"New Marston"},{"gazetteer_id":"N0060313","name":"Norcot"},{"gazetteer_id":"E0020977","name":"Northcourt"},{"gazetteer_id":"E0050462","name":"North Hinksey"},{"gazetteer_id":"E0050380","name":"North Moreton"},{"gazetteer_id":"E0020865","name":"North Stoke"},{"gazetteer_id":"E0020759","name":"Northway"},{"gazetteer_id":"E0050381","name":"Nuffield"},{"gazetteer_id":"E0050382","name":"Nuneham Courtenay"},{"gazetteer_id":"N0072077","name":"Oakley Wood"},{"gazetteer_id":"N0059982","name":"Old Amersham"},{"gazetteer_id":"E0000567","name":"Orchard Leigh"},{"gazetteer_id":"E0056504","name":"Oxford"},{"gazetteer_id":"N0077115","name":"Oxford City Centre"},{"gazetteer_id":"N0078697","name":"Oxford Science Park"},{"gazetteer_id":"E0053855","name":"Pangbourne"},{"gazetteer_id":"N0072059","name":"Peachcroft"},{"gazetteer_id":"E0044067","name":"Penn"},{"gazetteer_id":"E0000569","name":"Penn Street"},{"gazetteer_id":"E0059812","name":"Piddington"},{"gazetteer_id":"E0020876","name":"Port Hill"},{"gazetteer_id":"E0020879","name":"Preston Crowmarsh"},{"gazetteer_id":"E0053857","name":"Purley on Thames"},{"gazetteer_id":"E0050464","name":"Radley"},{"gazetteer_id":"N0076153","name":"RAF Benson"},{"gazetteer_id":"N0071726","name":"Reading"},{"gazetteer_id":"E0055119","name":"Reading Town Centre"},{"gazetteer_id":"E0057227","name":"Reading West"},{"gazetteer_id":"N0076645","name":"Redbridge Park & Ride"},{"gazetteer_id":"E0014280","name":"Rickmansworth"},{"gazetteer_id":"N0072061","name":"Risinghurst"},{"gazetteer_id":"E0020764","name":"Rose Hill"},{"gazetteer_id":"E0020979","name":"Rowstock"},{"gazetteer_id":"E0050387","name":"Sandford-on-Thames"},{"gazetteer_id":"E0020765","name":"Sandhills"},{"gazetteer_id":"E0044068","name":"Seer Green"},{"gazetteer_id":"E0050465","name":"Shellingford"},{"gazetteer_id":"E0020891","name":"Shillingford"},{"gazetteer_id":"E0020981","name":"Shippon"},{"gazetteer_id":"E0034510","name":"Sipson"},{"gazetteer_id":"E0057240","name":"Slough"},{"gazetteer_id":"N0072213","name":"Slough Town Centre"},{"gazetteer_id":"E0020899","name":"Southend"},{"gazetteer_id":"E0050391","name":"South Moreton"},{"gazetteer_id":"E0050393","name":"Stadhampton"},{"gazetteer_id":"E0050470","name":"Stanford in the Vale"},{"gazetteer_id":"N0076663","name":"St Clements"},{"gazetteer_id":"E0050471","name":"Steventon"},{"gazetteer_id":"E0043656","name":"Stokenchurch"},{"gazetteer_id":"E0044079","name":"Stoke Poges"},{"gazetteer_id":"E0053862","name":"Streatley"},{"gazetteer_id":"E0000774","name":"Studley Green"},{"gazetteer_id":"E0020767","name":"Summertown"},{"gazetteer_id":"E0050473","name":"Sutton Courtenay"},{"gazetteer_id":"E0050398","name":"Sydenham"},{"gazetteer_id":"E0020904","name":"Tadley"},{"gazetteer_id":"E0000640","name":"Tatling End"},{"gazetteer_id":"E0000777","name":"Terriers"},{"gazetteer_id":"E0050400","name":"Thame"},{"gazetteer_id":"N0076646","name":"Thornhill Park & Ride"},{"gazetteer_id":"E0000781","name":"Totteridge"},{"gazetteer_id":"E0050403","name":"Towersey"},{"gazetteer_id":"E0000785","name":"Tylers Green"},{"gazetteer_id":"E0043207","name":"Upper Basildon"},{"gazetteer_id":"E0020771","name":"Upper Wolvercote"},{"gazetteer_id":"E0050475","name":"Upton"},{"gazetteer_id":"E0041749","name":"Upton Lea"},{"gazetteer_id":"E0034515","name":"Uxbridge"},{"gazetteer_id":"E0050404","name":"Wallingford"},{"gazetteer_id":"E0050476","name":"Wantage"},{"gazetteer_id":"N0071932","name":"Water Eaton"},{"gazetteer_id":"E0057472","name":"Watford"},{"gazetteer_id":"E0050408","name":"Watlington"},{"gazetteer_id":"E0050409","name":"West Hagbourne"},{"gazetteer_id":"E0050480","name":"West Hendred"},{"gazetteer_id":"E0000791","name":"West Wycombe Village"},{"gazetteer_id":"N0072211","name":"Wexham Court"},{"gazetteer_id":"E0000644","name":"Wexham Street"},{"gazetteer_id":"E0050411","name":"Wheatley"},{"gazetteer_id":"E0000795","name":"Widmer End"},{"gazetteer_id":"E0000589","name":"Winchmore Hill"},{"gazetteer_id":"N0076684","name":"Windsor"},{"gazetteer_id":"E0055226","name":"Windsor Town Centre"},{"gazetteer_id":"E0043659","name":"Wooburn"},{"gazetteer_id":"E0000797","name":"Wooburn Green"},{"gazetteer_id":"E0000798","name":"Wooburn Moor"},{"gazetteer_id":"E0050413","name":"Woodcote"},{"gazetteer_id":"N0076145","name":"Wood Farm"},{"gazetteer_id":"E0050564","name":"Woodstock"},{"gazetteer_id":"E0050482","name":"Wootton"},{"gazetteer_id":"E0000802","name":"Wycombe Marsh"},{"gazetteer_id":"E0050483","name":"Wytham"}]}]}